Introduction

This post demonstrates how small multiples can be used to highlight different parts of a distribution. In principle, ggplot2 offers many, easy to use options that partial out different groups in your data. The aesthetics color, size, and shape come to mind. Moreover, the purpose of small multiples is to show the same (bivariate) association across different groups in your data. Notwithstanding, either approach has drawbacks. When mapping categories to an aesthetic like color, all groups remain on the same canvas. The result may be wanting, especially when you work with big datasets. Small multiples, in contrast, draw out each group but deemphasize the grand picture. Wouldnt it be nice to find some middle ground?

Motivation

We are going to work with the diamonds data which is available from the ggplot2 package. The goal is to highlight each cut in a scatter plot of price against carat without falling into either of the extremes mentioned above. Here is what the data look like:

rm(list = ls())
library("tidyverse")
data(diamonds)
select(diamonds, price, carat, cut)

## # A tibble: 53,940 x 3
##    price carat cut      
##    <int> <dbl> <ord>    
##  1   326 0.23  Ideal    
##  2   326 0.21  Premium  
##  3   327 0.23  Good     
##  4   334 0.290 Premium  
##  5   335 0.31  Good     
##  6   336 0.24  Very Good
##  7   336 0.24  Very Good
##  8   337 0.26  Very Good
##  9   337 0.22  Fair     
## 10   338 0.23  Very Good
## #  with 53,930 more rows
…
